// Jest Snapshot v1, https://goo.gl/fbAQLP

exports[`Some component renders App correctly 1`] = `
<div
  className="App"
>
  <div>
    <div>
      <nav
        className="nav-navigation"
      >
        <div
          className="nav-logo"
        >
          <a
            href="/"
          >
            <img
              className="logo-menu"
              src=""
            />
          </a>
        </div>
        <div
          className="pickLanguage"
        >
          <a
            className="langIcon"
            onClick={[Function]}
          >
            <img
              className="delete_image"
              src=""
            />
          </a>
          <a
            className="langIcon"
            onClick={[Function]}
          >
            <img
              className="delete_image"
              src=""
            />
          </a>
          <a
            className="langIcon"
            onClick={[Function]}
          >
            <img
              className="delete_image"
              src=""
            />
          </a>
          <a
            className="langIcon"
            onClick={[Function]}
          >
            <img
              className="delete_image"
              src=""
            />
          </a>
        </div>
      </nav>
    </div>
    <div>
      <div
        className="limiter"
      >
        <div
          className="container-login100"
        >
          <div
            className="wrap-login100"
          >
            <form
              className="login100-form validate-form"
              onSubmit={[Function]}
            >
              <span
                className="login100-form-title"
                style={
                  Object {
                    "paddingBottom": 50,
                  }
                }
              >
                Bienvenue sur Wekin
              </span>
              <div
                className="wrap-input100 validate-input"
                data-validate="Valid email is: a@b.c"
              >
                <input
                  className="input100"
                  name="email"
                  onChange={[Function]}
                  required={true}
                  type="email"
                  value=""
                />
                <span
                  className="focus-input100"
                  data-placeholder="Email"
                />
              </div>
              <div
                className="wrap-input100 validate-input"
                data-validate="Enter password"
              >
                <span
                  className="btn-show-pass"
                >
                  <i
                    className="zmdi zmdi-eye"
                  />
                </span>
                <input
                  className="input100"
                  name="password"
                  onChange={[Function]}
                  required={true}
                  type="password"
                  value=""
                />
                <span
                  className="focus-input100"
                  data-placeholder="Mot de Passe"
                />
              </div>
              <div
                className="container-login100-form-btn"
              >
                <div
                  className="wrap-login100-form-btn"
                >
                  <div
                    className="login100-form-bgbtn"
                  />
                  <button
                    className="login100-form-btn"
                    type="submit"
                  >
                    Connexion
                  </button>
                </div>
              </div>
              <div
                style={
                  Object {
                    "flexDirection": "column",
                    "paddingTop": 60,
                    "textAlign": "center",
                  }
                }
              >
                <span
                  className="txt1"
                >
                  Mot de passe oublié?
                </span>
                <button
                  className="txt2"
                  href="#"
                  onClick={[Function]}
                  type="button"
                >
                   
                  Réinitialiser le mot de passe
                </button>
              </div>
              <div
                style={
                  Object {
                    "alignItems": "center",
                    "flexDirection": "column",
                    "paddingTop": 20,
                    "textAlign": "center",
                  }
                }
              >
                <span
                  className="txt1"
                >
                  Pas de compte?
                </span>
                <button
                  className="txt2"
                  href="#"
                  onClick={[Function]}
                  type="button"
                >
                   
                  S'inscrire
                </button>
              </div>
            </form>
          </div>
        </div>
      </div>
    </div>
  </div>
</div>
`;

exports[`Some component renders Board correctly 1`] = `
<div
  className="Board"
>
  <div
    className="sort-search-div"
  >
    <input
      className="SearchBar"
      onChange={[Function]}
      type="text"
      value=""
    />
  </div>
  <div
    className="filter"
  >
    <div
      className="filter-name"
    >
      Patient:
        
      <select
        id="patientfilter"
        onChange={[Function]}
      >
        <option
          value="Tous"
        >
          Tous
        </option>
      </select>
    </div>
    <div
      className="edit-mode"
    >
      <button
        onClick={[Function]}
      />
    </div>
    <div
      className="filter-sort"
    >
      <div>
        Trier par:
          
        <select
          id="sortfilter"
          onChange={[Function]}
        >
          <option
            value="Date"
          >
            Date
          </option>
          <option
            value="tired"
          />
          <option
            value="pain"
          />
          <option
            value="breath"
          />
          <option
            value="difficulty"
          >
            Difficulté
          </option>
        </select>
      </div>
    </div>
    <div
      className="filter-order"
    >
      <button
        onClick={[Function]}
      >
        undefined ↓
      </button>
    </div>
  </div>
  <div />
</div>
`;

exports[`Some component renders Home correctly 1`] = `
<div>
  <div
    className="limiter"
  >
    <div
      className="container-login100"
    >
      <div
        className="wrap-login100"
      >
        <form
          className="login100-form validate-form"
          onSubmit={[Function]}
        >
          <span
            className="login100-form-title"
            style={
              Object {
                "paddingBottom": 50,
              }
            }
          >
            Bienvenue sur Wekin
          </span>
          <div
            className="wrap-input100 validate-input"
            data-validate="Valid email is: a@b.c"
          >
            <input
              className="input100"
              name="email"
              onChange={[Function]}
              required={true}
              type="email"
              value=""
            />
            <span
              className="focus-input100"
              data-placeholder="Email"
            />
          </div>
          <div
            className="wrap-input100 validate-input"
            data-validate="Enter password"
          >
            <span
              className="btn-show-pass"
            >
              <i
                className="zmdi zmdi-eye"
              />
            </span>
            <input
              className="input100"
              name="password"
              onChange={[Function]}
              required={true}
              type="password"
              value=""
            />
            <span
              className="focus-input100"
              data-placeholder="Mot de Passe"
            />
          </div>
          <div
            className="container-login100-form-btn"
          >
            <div
              className="wrap-login100-form-btn"
            >
              <div
                className="login100-form-bgbtn"
              />
              <button
                className="login100-form-btn"
                type="submit"
              >
                Connexion
              </button>
            </div>
          </div>
          <div
            style={
              Object {
                "flexDirection": "column",
                "paddingTop": 60,
                "textAlign": "center",
              }
            }
          >
            <span
              className="txt1"
            >
              Mot de passe oublié?
            </span>
            <button
              className="txt2"
              href="#"
              onClick={[Function]}
              type="button"
            >
               
              Réinitialiser le mot de passe
            </button>
          </div>
          <div
            style={
              Object {
                "alignItems": "center",
                "flexDirection": "column",
                "paddingTop": 20,
                "textAlign": "center",
              }
            }
          >
            <span
              className="txt1"
            >
              Pas de compte?
            </span>
            <button
              className="txt2"
              href="#"
              onClick={[Function]}
              type="button"
            >
               
              S'inscrire
            </button>
          </div>
        </form>
      </div>
    </div>
  </div>
</div>
`;

exports[`Some component renders Registration correctly 1`] = `
<div>
  <div
    className="limiter"
  >
    <div
      className="container-login100"
    >
      <div
        className="wrap-login100"
      >
        <form
          className="login100-form validate-form"
          onSubmit={[Function]}
        >
          <span
            className="login100-form-title"
            style={
              Object {
                "paddingBottom": 50,
              }
            }
          >
            Inscription
          </span>
          <div
            className="wrap-input100 validate-input"
          >
            <input
              className="input100"
              name="firstName"
              onChange={[Function]}
              required={true}
              type="text"
              value=""
            />
            <span
              className="focus-input100"
              data-placeholder="Prénom"
            />
          </div>
          <div
            className="wrap-input100 validate-input"
          >
            <input
              className="input100"
              name="lastName"
              onChange={[Function]}
              required={true}
              type="text"
              value=""
            />
            <span
              className="focus-input100"
              data-placeholder="Nom"
            />
          </div>
          <div
            className="wrap-input100 validate-input"
            data-validate="Valid email is: a@b.c"
          >
            <input
              className="input100"
              name="email"
              onChange={[Function]}
              required={true}
              type="email"
              value=""
            />
            <span
              className="focus-input100"
              data-placeholder="Email"
            />
          </div>
          <div
            className="wrap-input100 validate-input"
          >
            <input
              className="input100"
              name="password"
              onChange={[Function]}
              required={true}
              type="password"
              value=""
            />
            <span
              className="focus-input100"
              data-placeholder="Mot de Passe"
            />
          </div>
          <div
            className="wrap-input100 validate-input"
          >
            <input
              className="input100"
              name="confirm_password"
              onChange={[Function]}
              required={true}
              type="password"
              value=""
            />
            <span
              className="focus-input100"
              data-placeholder="Confirmation Mot de Passe"
            />
          </div>
          <div>
            <form>
              <div
                onExpire={[Function]}
              />
            </form>
          </div>
          <div
            className="container-login100-form-btn"
          >
            <div
              className="wrap-login100-form-btn"
            >
              <div
                className="login100-form-bgbtn"
              />
              <button
                className="login100-form-btn"
                disabled={true}
                type="submit"
              >
                S'inscrire
              </button>
            </div>
          </div>
        </form>
      </div>
    </div>
  </div>
</div>
`;
